{"page":{"head":{"scripts":{"libraries":[{"name":"axios","path":"node_modules/axios/dist/axios.js"},{"name":"bowser","path":"node_modules/bowser/bundled.js"}],"preloadComponents":[{"name":"tracking-component"}]}},"body":{"style":{"backgroundColor":"#2a4cbb","display":"flex","flexDirection":"column","fontFamily":"Arial, sans-serif","margin":"0 auto","minHeight":"100vh","width":"100%"}},"header":{"style":{"display":"flex","flexDirection":"column","height":"10vh","justifyContent":"center","padding":"0.5em 5%","width":"90%"},"rows":[{"style":{"alignItems":"center","display":"flex","flexDirection":"row","justifyContent":"flex-end","width":"100%"},"columns":[{"name":"menu-component","method":"GET","endpoint":"menus/display/admin-header","structure":{"label":"Menu Principal"},"data":{"1":{"id":1,"menuId":1,"localeSeoId":1,"localeSeoSlugId":null,"parent":null,"customUrl":null,"private":false,"order":1,"createdAt":"2023-07-15T05:54:54.000Z","updatedAt":"2023-07-15T05:54:54.000Z","deletedAt":null,"LocaleSeoId":1,"LocaleSeoSlugId":null,"localeSeo":{"id":1,"languageAlias":"es","prefix":"admin","url":"panel-de-control","title":"Panel de control","description":null,"keywords":null,"redirection":false,"menu":true,"changeFrequency":null,"priority":null,"sitemap":false,"createdAt":"2023-07-15T05:54:54.000Z","updatedAt":"2023-07-15T05:54:54.000Z","deletedAt":null},"locales":[{"id":1,"languageAlias":"es","entity":"menu-item","entityId":1,"key":"name","value":"Panel de control","createdAt":"2023-07-15T05:54:54.000Z","updatedAt":"2023-07-15T05:54:54.000Z","deletedAt":null}]},"2":{"id":2,"menuId":1,"localeSeoId":2,"localeSeoSlugId":null,"parent":null,"customUrl":null,"private":false,"order":2,"createdAt":"2023-07-15T05:54:54.000Z","updatedAt":"2023-07-15T05:54:54.000Z","deletedAt":null,"LocaleSeoId":2,"LocaleSeoSlugId":null,"localeSeo":{"id":2,"languageAlias":"es","prefix":"admin","url":"recursos-api","title":"Generador de recursos administrativos","description":null,"keywords":null,"redirection":false,"menu":true,"changeFrequency":null,"priority":null,"sitemap":false,"createdAt":"2023-07-15T05:54:54.000Z","updatedAt":"2023-07-15T05:54:54.000Z","deletedAt":null},"locales":[{"id":2,"languageAlias":"es","entity":"menu-item","entityId":2,"key":"name","value":"Generador de recursos API","createdAt":"2023-07-15T05:54:54.000Z","updatedAt":"2023-07-15T05:54:54.000Z","deletedAt":null}]},"3":{"id":3,"menuId":1,"localeSeoId":3,"localeSeoSlugId":null,"parent":null,"customUrl":null,"private":false,"order":3,"createdAt":"2023-07-15T05:54:54.000Z","updatedAt":"2023-07-15T05:54:54.000Z","deletedAt":null,"LocaleSeoId":3,"LocaleSeoSlugId":null,"localeSeo":{"id":3,"languageAlias":"es","prefix":"admin","url":"usuarios","title":"Usuarios","description":null,"keywords":null,"redirection":false,"menu":true,"changeFrequency":null,"priority":null,"sitemap":false,"createdAt":"2023-07-15T05:54:54.000Z","updatedAt":"2023-07-15T05:54:54.000Z","deletedAt":null},"locales":[{"id":3,"languageAlias":"es","entity":"menu-item","entityId":3,"key":"name","value":"Usuarios","createdAt":"2023-07-15T05:54:54.000Z","updatedAt":"2023-07-15T05:54:54.000Z","deletedAt":null}]},"4":{"id":4,"menuId":1,"localeSeoId":4,"localeSeoSlugId":null,"parent":null,"customUrl":null,"private":false,"order":4,"createdAt":"2023-07-15T05:54:54.000Z","updatedAt":"2023-07-15T05:54:54.000Z","deletedAt":null,"LocaleSeoId":4,"LocaleSeoSlugId":null,"localeSeo":{"id":4,"languageAlias":"es","prefix":"admin","url":"menus","title":"Menús","description":null,"keywords":null,"redirection":false,"menu":true,"changeFrequency":null,"priority":null,"sitemap":false,"createdAt":"2023-07-15T05:54:54.000Z","updatedAt":"2023-07-15T05:54:54.000Z","deletedAt":null},"locales":[{"id":4,"languageAlias":"es","entity":"menu-item","entityId":4,"key":"name","value":"Menus","createdAt":"2023-07-15T05:54:54.000Z","updatedAt":"2023-07-15T05:54:54.000Z","deletedAt":null}]},"5":{"id":5,"menuId":1,"localeSeoId":5,"localeSeoSlugId":null,"parent":null,"customUrl":null,"private":false,"order":5,"createdAt":"2023-07-15T05:54:54.000Z","updatedAt":"2023-07-15T05:54:54.000Z","deletedAt":null,"LocaleSeoId":5,"LocaleSeoSlugId":null,"localeSeo":{"id":5,"languageAlias":"es","prefix":"admin","url":"seo","title":"SEO","description":"SEO","keywords":null,"redirection":false,"menu":true,"changeFrequency":null,"priority":null,"sitemap":false,"createdAt":"2023-07-15T05:54:54.000Z","updatedAt":"2023-07-15T05:54:54.000Z","deletedAt":null},"locales":[{"id":5,"languageAlias":"es","entity":"menu-item","entityId":5,"key":"name","value":"SEO","createdAt":"2023-07-15T05:54:54.000Z","updatedAt":"2023-07-15T05:54:54.000Z","deletedAt":null}]}}}]}]},"main":{"style":{"display":"flex","flexDirection":"column","margin":"0 auto","width":"90%"},"rows":[{"style":{"width":"100%"},"columns":[{"name":"message-component"}]},{"style":{"display":"flex","flexWrap":"wrap","justifyContent":"space-between","width":"100%"},"columns":[{"style":{"minWidth":"30%","maxWidth":"30%"},"name":"admin-table-component","label":"Errores 500","method":"GET","endpoint":"api-trackings/errors/500","pagination":true,"structure":{"headers":{"resource":{"label":"Nombre del recurso"},"method":{"label":"Método"},"endTime":{"label":"Fecha"}}},"data":{"count":2,"rows":[{"id":125,"userId":null,"fingerprint":null,"ip":"::ffff:127.0.0.1","isRobot":false,"resource":"/admin/usuarios","resourceElement":null,"method":"GET","httpCode":500,"message":null,"startTime":1689407660433,"endTime":"2023-7-15 9:54:20","latencyMS":44,"createdAt":"2023-07-15T07:54:20.000Z","updatedAt":"2023-07-15T07:54:20.000Z","deletedAt":null},{"id":65,"userId":1,"fingerprint":"2047561640","ip":"::ffff:127.0.0.1","isRobot":false,"resource":"/admin/usuarios","resourceElement":null,"method":"GET","httpCode":500,"message":null,"startTime":1689400897688,"endTime":"2023-7-15 8:1:37","latencyMS":77,"createdAt":"2023-07-15T06:01:37.000Z","updatedAt":"2023-07-15T06:01:37.000Z","deletedAt":null}],"meta":{"total":2,"pages":1,"currentPage":1}}},{"style":{"minWidth":"30%","maxWidth":"30%"},"name":"admin-table-component","label":"Errores 404","method":"GET","endpoint":"api-trackings/errors/404","pagination":true,"structure":{"headers":{"resource":{"label":"Nombre del recurso"},"method":{"label":"Método"},"endTime":{"label":"Fecha"}}},"data":{"count":17,"rows":[{"id":147,"userId":1,"fingerprint":"2047561640","ip":"::ffff:127.0.0.1","isRobot":false,"resource":"/admin/axios.js.map","resourceElement":null,"method":"GET","httpCode":404,"message":null,"startTime":1689408683091,"endTime":"2023-7-15 10:11:23","latencyMS":4,"createdAt":"2023-07-15T08:11:23.000Z","updatedAt":"2023-07-15T08:11:23.000Z","deletedAt":null},{"id":135,"userId":null,"fingerprint":"2047561640","ip":"::ffff:127.0.0.1","isRobot":false,"resource":"/axios.js.map","resourceElement":null,"method":"GET","httpCode":404,"message":null,"startTime":1689408677532,"endTime":"2023-7-15 10:11:17","latencyMS":4,"createdAt":"2023-07-15T08:11:17.000Z","updatedAt":"2023-07-15T08:11:17.000Z","deletedAt":null},{"id":129,"userId":null,"fingerprint":null,"ip":"::ffff:127.0.0.1","isRobot":false,"resource":"/admin/axios.js.map","resourceElement":null,"method":"GET","httpCode":404,"message":null,"startTime":1689407739504,"endTime":"2023-7-15 9:55:39","latencyMS":4,"createdAt":"2023-07-15T07:55:39.000Z","updatedAt":"2023-07-15T07:55:39.000Z","deletedAt":null},{"id":122,"userId":null,"fingerprint":"2047561640","ip":"::ffff:127.0.0.1","isRobot":false,"resource":"/admin/axios.js.map","resourceElement":null,"method":"GET","httpCode":404,"message":null,"startTime":1689407621789,"endTime":"2023-7-15 9:53:41","latencyMS":5,"createdAt":"2023-07-15T07:53:41.000Z","updatedAt":"2023-07-15T07:53:41.000Z","deletedAt":null},{"id":111,"userId":1,"fingerprint":"2047561640","ip":"::ffff:127.0.0.1","isRobot":false,"resource":"/admin/axios.js.map","resourceElement":null,"method":"GET","httpCode":404,"message":null,"startTime":1689401599286,"endTime":"2023-7-15 8:13:19","latencyMS":4,"createdAt":"2023-07-15T06:13:19.000Z","updatedAt":"2023-07-15T06:13:19.000Z","deletedAt":null}],"meta":{"total":17,"pages":4,"currentPage":1}}},{"style":{"minWidth":"30%","maxWidth":"30%"},"name":"admin-table-component","label":"Latencias","method":"GET","endpoint":"page-trackings/latencies","pagination":true,"structure":{"headers":{"prefix":{"label":"Sección"},"url":{"label":"Url"},"averageLatency":{"label":"Latencia"}}},"data":{"count":[{"localeSeoId":1,"count":4},{"localeSeoId":3,"count":13},{"localeSeoId":6,"count":1}],"rows":[{"averageLatency":"90","url":"panel-de-control","prefix":"admin"},{"averageLatency":"81","url":"usuarios","prefix":"admin"},{"averageLatency":"41","url":"login","prefix":"front"}],"meta":{"total":3,"pages":1,"currentPage":1}}}]}]},"footer":{"style":{}}}}